summon armor_stand ~ ~ ~ {Tags:["plot_marker"],Marker:1b,NoGravity:1b,Invisible:1b}
scoreboard players operation @e[tag=plot_marker,sort=nearest,limit=1] plot.id = #current plot.id
execute store result score @e[tag=plot_marker,sort=nearest,limit=1] plot.x run data get entity @s Pos[0]
execute store result score @e[tag=plot_marker,sort=nearest,limit=1] plot.z run data get entity @s Pos[2]
scoreboard players set #iteration plot.var 0
function plot:road1
#fill ~31 ~-1 ~ ~34 ~-1 ~34 cyan_terracotta
#fill ~ ~-1 ~31 ~31 ~-1 ~34 cyan_terracotta
scoreboard players set #iteration plot.var 0
function plot:road4
scoreboard players add #current plot.id 1
